CACCS: Taller de RStudio - 1ª parte
…
Hay varios métodos para asignar colores al nombrarlos en R. Se puede hacer por nombre (en inglés), con códigos alfanúmericos, y se puede también importar paletas de colores con paquetes específicos. Considero útil revisar las opciones en este enlace: https://r-graph-gallery.com/ggplot2-color.html

7.5 Alcanzando visualización de densidades y sus cambios a través del tiempo

library(dslabs)
data(gapminder)
gapminder |> as_tibble()

# A tibble: 10,545 × 9
   country   year infant_mortality life_expectancy fertility population      gdp
   <fct>    <int>            <dbl>           <dbl>     <dbl>      <dbl>    <dbl>
 1 Albania   1960            115.             62.9      6.19    1636054 NA      
 2 Algeria   1960            148.             47.5      7.65   11124892  1.38e10
 3 Angola    1960            208              36.0      7.32    5270844 NA      
 4 Antigua…  1960             NA              63.0      4.43      54681 NA      
 5 Argenti…  1960             59.9            65.4      3.11   20619075  1.08e11
 6 Armenia   1960             NA              66.9      4.55    1867396 NA      
 7 Aruba     1960             NA              65.7      4.82      54208 NA      
 8 Austral…  1960             20.3            70.9      3.45   10292328  9.67e10
 9 Austria   1960             37.3            68.8      2.7     7065525  5.24e10
10 Azerbai…  1960             NA              61.3      5.57    3897889 NA      
# ℹ 10,535 more rows
# ℹ 2 more variables: continent <fct>, region <fct>
…
